10
Susanov Pasha 1997 175 60
Campbell Anne 1999 153 50
Vargas Alvin 1996 180 65
Williamson Christopher 1998 179 63
Hughes Tonya 1996 163 54
Perry Soham 1999 170 59
Susan Oliver 1998 172 55
Victor Bailey 1999 165 70
Glenda Kelley 1997 180 64
Jeffrey Holmes 1998 150 50
